<svg xmlns:inkscape="http://www.inkscape.org/namespaces/inkscape" xmlns:sodipodi="http://sodipodi.sourceforge.net/DTD/sodipodi-0.dtd" xmlns:xlink="http://www.w3.org/1999/xlink" xmlns="http://www.w3.org/2000/svg" xmlns:svg="http://www.w3.org/2000/svg" width="79.375mm" height="52.916668mm" viewBox="0 0 79.375 52.916668" version="1.1" id="svg5" inkscape:version="1.1-alpha (6e9b9411f4, 2021-03-28)" sodipodi:docname="input.svg">
  <sodipodi:namedview id="namedview7" pagecolor="#ffffff" bordercolor="#999999" borderopacity="1" objecttolerance="10.0" gridtolerance="10.0" guidetolerance="10.0" inkscape:pageshadow="0" inkscape:pageopacity="0" inkscape:pagecheckerboard="0" inkscape:document-units="mm" showgrid="false" inkscape:zoom="0.56123737" inkscape:cx="77.507312" inkscape:cy="277.06637" inkscape:window-width="1534" inkscape:window-height="843" inkscape:window-x="66" inkscape:window-y="20" inkscape:window-maximized="1" inkscape:current-layer="layer1"/>
  <defs id="defs2"/>
  <g inkscape:label="Layer 1" inkscape:groupmode="layer" id="layer1" transform="translate(-84.298218,-74.898811)">
    <image x="84.298218" y="74.898811" width="79.375" height="52.916668" transform="" id="target" xlink:href="images/target.tif"/>
  </g>
</svg>